<svg width="664" height="779" viewBox="0 0 664 779" fill="none" xmlns="http://www.w3.org/2000/svg">
<path d="M-25.49 103.159C-5.45447 14.1064 102.21 -21.542 171.432 37.9572L589.561 397.356C660.912 458.686 638.039 574.411 548.721 603.985L9.5697 782.501C-79.748 812.075 -167.165 732.867 -146.513 641.075L-25.49 103.159Z" fill="#F1FCF5"/>
</svg>
